EESchema Schematic File Version 2
LIBS:power
LIBS:device
LIBS:switches
LIBS:relays
LIBS:motors
LIBS:transistors
LIBS:conn
LIBS:linear
LIBS:regul
LIBS:74xx
LIBS:cmos4000
LIBS:adc-dac
LIBS:memory
LIBS:xilinx
LIBS:microcontrollers
LIBS:dsp
LIBS:microchip
LIBS:analog_switches
LIBS:motorola
LIBS:texas
LIBS:intel
LIBS:audio
LIBS:interface
LIBS:digital-audio
LIBS:philips
LIBS:display
LIBS:cypress
LIBS:siliconi
LIBS:opto
LIBS:atmel
LIBS:contrib
LIBS:valves
LIBS:teensy_3.1
LIBS:crumpschemes
LIBS:SparkFun-LED
LIBS:SparkFun-DigitalIC
LIBS:SK9822_thin-cache
LIBS:BinaryClock-cache
EELAYER 25 0
EELAYER END
$Descr USLedger 17000 11000
encoding utf-8
Sheet 1 1
Title ""
Date ""
Rev ""
Comp ""
Comment1 ""
Comment2 ""
Comment3 ""
Comment4 ""
$EndDescr
$Comp
L Teensy_3.1 U1
U 1 1 5AFCB91A
P 4100 4700
F 0 "U1" H 4100 5450 60  0000 C CNN
F 1 "Teensy_3.1" H 4150 5900 60  0000 C CNN
F 2 ".pretty:Teensy-3.1-Reduced" H 4200 4700 60  0001 C CNN
F 3 "" H 4200 4700 60  0000 C CNN
	1    4100 4700
	1    0    0    -1  
$EndComp
NoConn ~ 17900 250 
$Comp
L SN74AHCT125 U3
U 1 1 5AFCC98E
P 7100 2150
F 0 "U3" H 7100 1350 60  0000 C CNN
F 1 "SN74AHCT125" H 7100 2800 60  0000 C CNN
F 2 "Housings_DIP:DIP-14_W7.62mm_Socket_LongPads" H 7100 2150 60  0001 C CNN
F 3 "" H 7100 2150 60  0001 C CNN
	1    7100 2150
	1    0    0    -1  
$EndComp
$Comp
L GND #PWR01
U 1 1 5AFCCBEA
P 9900 4400
F 0 "#PWR01" H 9900 4150 50  0001 C CNN
F 1 "GND" H 9900 4250 50  0000 C CNN
F 2 "" H 9900 4400 50  0001 C CNN
F 3 "" H 9900 4400 50  0001 C CNN
	1    9900 4400
	1    0    0    -1  
$EndComp
$Comp
L +5V #PWR02
U 1 1 5AFCCC2C
P 9500 4400
F 0 "#PWR02" H 9500 4250 50  0001 C CNN
F 1 "+5V" H 9500 4540 50  0000 C CNN
F 2 "" H 9500 4400 50  0001 C CNN
F 3 "" H 9500 4400 50  0001 C CNN
	1    9500 4400
	-1   0    0    1   
$EndComp
$Comp
L +3.3V #PWR03
U 1 1 5AFCCC6E
P 9100 4400
F 0 "#PWR03" H 9100 4250 50  0001 C CNN
F 1 "+3.3V" H 9100 4540 50  0000 C CNN
F 2 "" H 9100 4400 50  0001 C CNN
F 3 "" H 9100 4400 50  0001 C CNN
	1    9100 4400
	-1   0    0    1   
$EndComp
$Comp
L PWR_FLAG #FLG04
U 1 1 5AFCCCB0
P 9100 4350
F 0 "#FLG04" H 9100 4425 50  0001 C CNN
F 1 "PWR_FLAG" H 9100 4500 50  0000 C CNN
F 2 "" H 9100 4350 50  0001 C CNN
F 3 "" H 9100 4350 50  0001 C CNN
	1    9100 4350
	1    0    0    -1  
$EndComp
$Comp
L PWR_FLAG #FLG05
U 1 1 5AFCCD63
P 9500 4350
F 0 "#FLG05" H 9500 4425 50  0001 C CNN
F 1 "PWR_FLAG" H 9500 4500 50  0000 C CNN
F 2 "" H 9500 4350 50  0001 C CNN
F 3 "" H 9500 4350 50  0001 C CNN
	1    9500 4350
	1    0    0    -1  
$EndComp
$Comp
L PWR_FLAG #FLG06
U 1 1 5AFCCDB3
P 9900 4350
F 0 "#FLG06" H 9900 4425 50  0001 C CNN
F 1 "PWR_FLAG" H 9900 4500 50  0000 C CNN
F 2 "" H 9900 4350 50  0001 C CNN
F 3 "" H 9900 4350 50  0001 C CNN
	1    9900 4350
	1    0    0    -1  
$EndComp
$Comp
L GND #PWR07
U 1 1 5AFCF30D
P 3650 7300
F 0 "#PWR07" H 3650 7050 50  0001 C CNN
F 1 "GND" H 3650 7150 50  0000 C CNN
F 2 "" H 3650 7300 50  0001 C CNN
F 3 "" H 3650 7300 50  0001 C CNN
	1    3650 7300
	0    1    1    0   
$EndComp
$Comp
L GND #PWR08
U 1 1 5AFD2A50
P 7650 2800
F 0 "#PWR08" H 7650 2550 50  0001 C CNN
F 1 "GND" H 7650 2650 50  0000 C CNN
F 2 "" H 7650 2800 50  0001 C CNN
F 3 "" H 7650 2800 50  0001 C CNN
	1    7650 2800
	0    -1   -1   0   
$EndComp
$Comp
L +5V #PWR09
U 1 1 5AFD2AB7
P 6500 2800
F 0 "#PWR09" H 6500 2650 50  0001 C CNN
F 1 "+5V" H 6500 2940 50  0000 C CNN
F 2 "" H 6500 2800 50  0001 C CNN
F 3 "" H 6500 2800 50  0001 C CNN
	1    6500 2800
	0    -1   -1   0   
$EndComp
$Comp
L GND #PWR010
U 1 1 5AFD2C14
P 3000 3400
F 0 "#PWR010" H 3000 3150 50  0001 C CNN
F 1 "GND" H 3000 3250 50  0000 C CNN
F 2 "" H 3000 3400 50  0001 C CNN
F 3 "" H 3000 3400 50  0001 C CNN
	1    3000 3400
	0    1    1    0   
$EndComp
$Comp
L +5V #PWR011
U 1 1 5AFD2E5C
P 5150 3400
F 0 "#PWR011" H 5150 3250 50  0001 C CNN
F 1 "+5V" H 5150 3540 50  0000 C CNN
F 2 "" H 5150 3400 50  0001 C CNN
F 3 "" H 5150 3400 50  0001 C CNN
	1    5150 3400
	0    1    1    0   
$EndComp
$Comp
L GND #PWR012
U 1 1 5AFD30A3
P 6550 1750
F 0 "#PWR012" H 6550 1500 50  0001 C CNN
F 1 "GND" H 6550 1600 50  0000 C CNN
F 2 "" H 6550 1750 50  0001 C CNN
F 3 "" H 6550 1750 50  0001 C CNN
	1    6550 1750
	0    1    1    0   
$EndComp
$Comp
L Ethernet U2
U 1 1 5AFD3AE0
P 4200 7150
F 0 "U2" V 4650 7150 60  0000 C CNN
F 1 "Ethernet" V 3750 7150 60  0000 C CNN
F 2 ".pretty:EthernetDevBoard" H 4150 7600 60  0001 C CNN
F 3 "" H 4150 7600 60  0001 C CNN
	1    4200 7150
	0    -1   -1   0   
$EndComp
$Comp
L +3.3V #PWR013
U 1 1 5AFD3B89
P 3800 7450
F 0 "#PWR013" H 3800 7300 50  0001 C CNN
F 1 "+3.3V" H 3800 7590 50  0000 C CNN
F 2 "" H 3800 7450 50  0001 C CNN
F 3 "" H 3800 7450 50  0001 C CNN
	1    3800 7450
	0    -1   -1   0   
$EndComp
$Comp
L GND #PWR014
U 1 1 5AFD3E73
P 9450 1750
F 0 "#PWR014" H 9450 1500 50  0001 C CNN
F 1 "GND" H 9450 1600 50  0000 C CNN
F 2 "" H 9450 1750 50  0001 C CNN
F 3 "" H 9450 1750 50  0001 C CNN
	1    9450 1750
	1    0    0    -1  
$EndComp
$Comp
L SK9822 D1
U 1 1 5AFD53FB
P 9750 1600
F 0 "D1" H 9750 1350 60  0000 C CNN
F 1 "SK9822" H 9750 1850 60  0000 C CNN
F 2 ".pretty:SK9822" H 9750 1600 60  0001 C CNN
F 3 "" H 9750 1600 60  0001 C CNN
	1    9750 1600
	1    0    0    -1  
$EndComp
$Comp
L +5V #PWR015
U 1 1 5AFD6846
P 10050 1750
F 0 "#PWR015" H 10050 1600 50  0001 C CNN
F 1 "+5V" H 10050 1890 50  0000 C CNN
F 2 "" H 10050 1750 50  0001 C CNN
F 3 "" H 10050 1750 50  0001 C CNN
	1    10050 1750
	-1   0    0    1   
$EndComp
$Comp
L GND #PWR016
U 1 1 5AFD6AB3
P 10250 1750
F 0 "#PWR016" H 10250 1500 50  0001 C CNN
F 1 "GND" H 10250 1600 50  0000 C CNN
F 2 "" H 10250 1750 50  0001 C CNN
F 3 "" H 10250 1750 50  0001 C CNN
	1    10250 1750
	1    0    0    -1  
$EndComp
$Comp
L SK9822 D2
U 1 1 5AFD6AB9
P 10550 1600
F 0 "D2" H 10550 1350 60  0000 C CNN
F 1 "SK9822" H 10550 1850 60  0000 C CNN
F 2 ".pretty:SK9822" H 10550 1600 60  0001 C CNN
F 3 "" H 10550 1600 60  0001 C CNN
	1    10550 1600
	1    0    0    -1  
$EndComp
$Comp
L +5V #PWR017
U 1 1 5AFD6ABF
P 10850 1750
F 0 "#PWR017" H 10850 1600 50  0001 C CNN
F 1 "+5V" H 10850 1890 50  0000 C CNN
F 2 "" H 10850 1750 50  0001 C CNN
F 3 "" H 10850 1750 50  0001 C CNN
	1    10850 1750
	-1   0    0    1   
$EndComp
$Comp
L GND #PWR018
U 1 1 5AFD6B26
P 11050 1750
F 0 "#PWR018" H 11050 1500 50  0001 C CNN
F 1 "GND" H 11050 1600 50  0000 C CNN
F 2 "" H 11050 1750 50  0001 C CNN
F 3 "" H 11050 1750 50  0001 C CNN
	1    11050 1750
	1    0    0    -1  
$EndComp
$Comp
L SK9822 D3
U 1 1 5AFD6B2C
P 11350 1600
F 0 "D3" H 11350 1350 60  0000 C CNN
F 1 "SK9822" H 11350 1850 60  0000 C CNN
F 2 ".pretty:SK9822" H 11350 1600 60  0001 C CNN
F 3 "" H 11350 1600 60  0001 C CNN
	1    11350 1600
	1    0    0    -1  
$EndComp
$Comp
L +5V #PWR019
U 1 1 5AFD6B32
P 11650 1750
F 0 "#PWR019" H 11650 1600 50  0001 C CNN
F 1 "+5V" H 11650 1890 50  0000 C CNN
F 2 "" H 11650 1750 50  0001 C CNN
F 3 "" H 11650 1750 50  0001 C CNN
	1    11650 1750
	-1   0    0    1   
$EndComp
$Comp
L GND #PWR020
U 1 1 5AFD6B73
P 11850 1750
F 0 "#PWR020" H 11850 1500 50  0001 C CNN
F 1 "GND" H 11850 1600 50  0000 C CNN
F 2 "" H 11850 1750 50  0001 C CNN
F 3 "" H 11850 1750 50  0001 C CNN
	1    11850 1750
	1    0    0    -1  
$EndComp
$Comp
L SK9822 D4
U 1 1 5AFD6B79
P 12150 1600
F 0 "D4" H 12150 1350 60  0000 C CNN
F 1 "SK9822" H 12150 1850 60  0000 C CNN
F 2 ".pretty:SK9822" H 12150 1600 60  0001 C CNN
F 3 "" H 12150 1600 60  0001 C CNN
	1    12150 1600
	1    0    0    -1  
$EndComp
$Comp
L +5V #PWR021
U 1 1 5AFD6B7F
P 12450 1750
F 0 "#PWR021" H 12450 1600 50  0001 C CNN
F 1 "+5V" H 12450 1890 50  0000 C CNN
F 2 "" H 12450 1750 50  0001 C CNN
F 3 "" H 12450 1750 50  0001 C CNN
	1    12450 1750
	-1   0    0    1   
$EndComp
$Comp
L GND #PWR022
U 1 1 5AFD6BB2
P 12650 1750
F 0 "#PWR022" H 12650 1500 50  0001 C CNN
F 1 "GND" H 12650 1600 50  0000 C CNN
F 2 "" H 12650 1750 50  0001 C CNN
F 3 "" H 12650 1750 50  0001 C CNN
	1    12650 1750
	1    0    0    -1  
$EndComp
$Comp
L SK9822 D5
U 1 1 5AFD6BB8
P 12950 1600
F 0 "D5" H 12950 1350 60  0000 C CNN
F 1 "SK9822" H 12950 1850 60  0000 C CNN
F 2 ".pretty:SK9822" H 12950 1600 60  0001 C CNN
F 3 "" H 12950 1600 60  0001 C CNN
	1    12950 1600
	1    0    0    -1  
$EndComp
$Comp
L +5V #PWR023
U 1 1 5AFD6BBE
P 13250 1750
F 0 "#PWR023" H 13250 1600 50  0001 C CNN
F 1 "+5V" H 13250 1890 50  0000 C CNN
F 2 "" H 13250 1750 50  0001 C CNN
F 3 "" H 13250 1750 50  0001 C CNN
	1    13250 1750
	-1   0    0    1   
$EndComp
$Comp
L GND #PWR024
U 1 1 5AFD6BFD
P 13450 1750
F 0 "#PWR024" H 13450 1500 50  0001 C CNN
F 1 "GND" H 13450 1600 50  0000 C CNN
F 2 "" H 13450 1750 50  0001 C CNN
F 3 "" H 13450 1750 50  0001 C CNN
	1    13450 1750
	1    0    0    -1  
$EndComp
$Comp
L SK9822 D6
U 1 1 5AFD6C03
P 13750 1600
F 0 "D6" H 13750 1350 60  0000 C CNN
F 1 "SK9822" H 13750 1850 60  0000 C CNN
F 2 ".pretty:SK9822" H 13750 1600 60  0001 C CNN
F 3 "" H 13750 1600 60  0001 C CNN
	1    13750 1600
	1    0    0    -1  
$EndComp
$Comp
L +5V #PWR025
U 1 1 5AFD6C09
P 14050 1750
F 0 "#PWR025" H 14050 1600 50  0001 C CNN
F 1 "+5V" H 14050 1890 50  0000 C CNN
F 2 "" H 14050 1750 50  0001 C CNN
F 3 "" H 14050 1750 50  0001 C CNN
	1    14050 1750
	-1   0    0    1   
$EndComp
$Comp
L GND #PWR026
U 1 1 5AFD6C3C
P 15050 1750
F 0 "#PWR026" H 15050 1500 50  0001 C CNN
F 1 "GND" H 15050 1600 50  0000 C CNN
F 2 "" H 15050 1750 50  0001 C CNN
F 3 "" H 15050 1750 50  0001 C CNN
	1    15050 1750
	1    0    0    -1  
$EndComp
$Comp
L SK9822 D8
U 1 1 5AFD6C42
P 15350 1600
F 0 "D8" H 15350 1350 60  0000 C CNN
F 1 "SK9822" H 15350 1850 60  0000 C CNN
F 2 ".pretty:SK9822" H 15350 1600 60  0001 C CNN
F 3 "" H 15350 1600 60  0001 C CNN
	1    15350 1600
	1    0    0    -1  
$EndComp
$Comp
L +5V #PWR027
U 1 1 5AFD6C48
P 15650 1750
F 0 "#PWR027" H 15650 1600 50  0001 C CNN
F 1 "+5V" H 15650 1890 50  0000 C CNN
F 2 "" H 15650 1750 50  0001 C CNN
F 3 "" H 15650 1750 50  0001 C CNN
	1    15650 1750
	-1   0    0    1   
$EndComp
$Comp
L GND #PWR028
U 1 1 5AFD6D2D
P 9450 2500
F 0 "#PWR028" H 9450 2250 50  0001 C CNN
F 1 "GND" H 9450 2350 50  0000 C CNN
F 2 "" H 9450 2500 50  0001 C CNN
F 3 "" H 9450 2500 50  0001 C CNN
	1    9450 2500
	1    0    0    -1  
$EndComp
$Comp
L SK9822 D9
U 1 1 5AFD6D33
P 9750 2350
F 0 "D9" H 9750 2100 60  0000 C CNN
F 1 "SK9822" H 9750 2600 60  0000 C CNN
F 2 ".pretty:SK9822" H 9750 2350 60  0001 C CNN
F 3 "" H 9750 2350 60  0001 C CNN
	1    9750 2350
	1    0    0    -1  
$EndComp
$Comp
L +5V #PWR029
U 1 1 5AFD6D39
P 10050 2500
F 0 "#PWR029" H 10050 2350 50  0001 C CNN
F 1 "+5V" H 10050 2640 50  0000 C CNN
F 2 "" H 10050 2500 50  0001 C CNN
F 3 "" H 10050 2500 50  0001 C CNN
	1    10050 2500
	-1   0    0    1   
$EndComp
$Comp
L GND #PWR030
U 1 1 5AFD6D3F
P 10250 2500
F 0 "#PWR030" H 10250 2250 50  0001 C CNN
F 1 "GND" H 10250 2350 50  0000 C CNN
F 2 "" H 10250 2500 50  0001 C CNN
F 3 "" H 10250 2500 50  0001 C CNN
	1    10250 2500
	1    0    0    -1  
$EndComp
$Comp
L SK9822 D10
U 1 1 5AFD6D45
P 10550 2350
F 0 "D10" H 10550 2100 60  0000 C CNN
F 1 "SK9822" H 10550 2600 60  0000 C CNN
F 2 ".pretty:SK9822" H 10550 2350 60  0001 C CNN
F 3 "" H 10550 2350 60  0001 C CNN
	1    10550 2350
	1    0    0    -1  
$EndComp
$Comp
L +5V #PWR031
U 1 1 5AFD6D4B
P 10850 2500
F 0 "#PWR031" H 10850 2350 50  0001 C CNN
F 1 "+5V" H 10850 2640 50  0000 C CNN
F 2 "" H 10850 2500 50  0001 C CNN
F 3 "" H 10850 2500 50  0001 C CNN
	1    10850 2500
	-1   0    0    1   
$EndComp
$Comp
L GND #PWR032
U 1 1 5AFD6D51
P 11050 2500
F 0 "#PWR032" H 11050 2250 50  0001 C CNN
F 1 "GND" H 11050 2350 50  0000 C CNN
F 2 "" H 11050 2500 50  0001 C CNN
F 3 "" H 11050 2500 50  0001 C CNN
	1    11050 2500
	1    0    0    -1  
$EndComp
$Comp
L SK9822 D11
U 1 1 5AFD6D57
P 11350 2350
F 0 "D11" H 11350 2100 60  0000 C CNN
F 1 "SK9822" H 11350 2600 60  0000 C CNN
F 2 ".pretty:SK9822" H 11350 2350 60  0001 C CNN
F 3 "" H 11350 2350 60  0001 C CNN
	1    11350 2350
	1    0    0    -1  
$EndComp
$Comp
L +5V #PWR033
U 1 1 5AFD6D5D
P 11650 2500
F 0 "#PWR033" H 11650 2350 50  0001 C CNN
F 1 "+5V" H 11650 2640 50  0000 C CNN
F 2 "" H 11650 2500 50  0001 C CNN
F 3 "" H 11650 2500 50  0001 C CNN
	1    11650 2500
	-1   0    0    1   
$EndComp
$Comp
L GND #PWR034
U 1 1 5AFD6D63
P 11850 2500
F 0 "#PWR034" H 11850 2250 50  0001 C CNN
F 1 "GND" H 11850 2350 50  0000 C CNN
F 2 "" H 11850 2500 50  0001 C CNN
F 3 "" H 11850 2500 50  0001 C CNN
	1    11850 2500
	1    0    0    -1  
$EndComp
$Comp
L SK9822 D12
U 1 1 5AFD6D69
P 12150 2350
F 0 "D12" H 12150 2100 60  0000 C CNN
F 1 "SK9822" H 12150 2600 60  0000 C CNN
F 2 ".pretty:SK9822" H 12150 2350 60  0001 C CNN
F 3 "" H 12150 2350 60  0001 C CNN
	1    12150 2350
	1    0    0    -1  
$EndComp
$Comp
L +5V #PWR035
U 1 1 5AFD6D6F
P 12450 2500
F 0 "#PWR035" H 12450 2350 50  0001 C CNN
F 1 "+5V" H 12450 2640 50  0000 C CNN
F 2 "" H 12450 2500 50  0001 C CNN
F 3 "" H 12450 2500 50  0001 C CNN
	1    12450 2500
	-1   0    0    1   
$EndComp
$Comp
L GND #PWR036
U 1 1 5AFD6D75
P 12650 2500
F 0 "#PWR036" H 12650 2250 50  0001 C CNN
F 1 "GND" H 12650 2350 50  0000 C CNN
F 2 "" H 12650 2500 50  0001 C CNN
F 3 "" H 12650 2500 50  0001 C CNN
	1    12650 2500
	1    0    0    -1  
$EndComp
$Comp
L SK9822 D13
U 1 1 5AFD6D7B
P 12950 2350
F 0 "D13" H 12950 2100 60  0000 C CNN
F 1 "SK9822" H 12950 2600 60  0000 C CNN
F 2 ".pretty:SK9822" H 12950 2350 60  0001 C CNN
F 3 "" H 12950 2350 60  0001 C CNN
	1    12950 2350
	1    0    0    -1  
$EndComp
$Comp
L +5V #PWR037
U 1 1 5AFD6D81
P 13250 2500
F 0 "#PWR037" H 13250 2350 50  0001 C CNN
F 1 "+5V" H 13250 2640 50  0000 C CNN
F 2 "" H 13250 2500 50  0001 C CNN
F 3 "" H 13250 2500 50  0001 C CNN
	1    13250 2500
	-1   0    0    1   
$EndComp
$Comp
L GND #PWR038
U 1 1 5AFD6D87
P 13450 2500
F 0 "#PWR038" H 13450 2250 50  0001 C CNN
F 1 "GND" H 13450 2350 50  0000 C CNN
F 2 "" H 13450 2500 50  0001 C CNN
F 3 "" H 13450 2500 50  0001 C CNN
	1    13450 2500
	1    0    0    -1  
$EndComp
$Comp
L SK9822 D14
U 1 1 5AFD6D8D
P 13750 2350
F 0 "D14" H 13750 2100 60  0000 C CNN
F 1 "SK9822" H 13750 2600 60  0000 C CNN
F 2 ".pretty:SK9822" H 13750 2350 60  0001 C CNN
F 3 "" H 13750 2350 60  0001 C CNN
	1    13750 2350
	1    0    0    -1  
$EndComp
$Comp
L +5V #PWR039
U 1 1 5AFD6D93
P 14050 2500
F 0 "#PWR039" H 14050 2350 50  0001 C CNN
F 1 "+5V" H 14050 2640 50  0000 C CNN
F 2 "" H 14050 2500 50  0001 C CNN
F 3 "" H 14050 2500 50  0001 C CNN
	1    14050 2500
	-1   0    0    1   
$EndComp
$Comp
L GND #PWR040
U 1 1 5AFD6D99
P 15050 2500
F 0 "#PWR040" H 15050 2250 50  0001 C CNN
F 1 "GND" H 15050 2350 50  0000 C CNN
F 2 "" H 15050 2500 50  0001 C CNN
F 3 "" H 15050 2500 50  0001 C CNN
	1    15050 2500
	1    0    0    -1  
$EndComp
$Comp
L SK9822 D16
U 1 1 5AFD6D9F
P 15350 2350
F 0 "D16" H 15350 2100 60  0000 C CNN
F 1 "SK9822" H 15350 2600 60  0000 C CNN
F 2 ".pretty:SK9822" H 15350 2350 60  0001 C CNN
F 3 "" H 15350 2350 60  0001 C CNN
	1    15350 2350
	1    0    0    -1  
$EndComp
$Comp
L +5V #PWR041
U 1 1 5AFD6DA5
P 15650 2500
F 0 "#PWR041" H 15650 2350 50  0001 C CNN
F 1 "+5V" H 15650 2640 50  0000 C CNN
F 2 "" H 15650 2500 50  0001 C CNN
F 3 "" H 15650 2500 50  0001 C CNN
	1    15650 2500
	-1   0    0    1   
$EndComp
$Comp
L GND #PWR042
U 1 1 5AFD6E98
P 9450 3250
F 0 "#PWR042" H 9450 3000 50  0001 C CNN
F 1 "GND" H 9450 3100 50  0000 C CNN
F 2 "" H 9450 3250 50  0001 C CNN
F 3 "" H 9450 3250 50  0001 C CNN
	1    9450 3250
	1    0    0    -1  
$EndComp
$Comp
L SK9822 D17
U 1 1 5AFD6E9E
P 9750 3100
F 0 "D17" H 9750 2850 60  0000 C CNN
F 1 "SK9822" H 9750 3350 60  0000 C CNN
F 2 ".pretty:SK9822" H 9750 3100 60  0001 C CNN
F 3 "" H 9750 3100 60  0001 C CNN
	1    9750 3100
	1    0    0    -1  
$EndComp
$Comp
L +5V #PWR043
U 1 1 5AFD6EA4
P 10050 3250
F 0 "#PWR043" H 10050 3100 50  0001 C CNN
F 1 "+5V" H 10050 3390 50  0000 C CNN
F 2 "" H 10050 3250 50  0001 C CNN
F 3 "" H 10050 3250 50  0001 C CNN
	1    10050 3250
	-1   0    0    1   
$EndComp
$Comp
L GND #PWR044
U 1 1 5AFD6EAA
P 10250 3250
F 0 "#PWR044" H 10250 3000 50  0001 C CNN
F 1 "GND" H 10250 3100 50  0000 C CNN
F 2 "" H 10250 3250 50  0001 C CNN
F 3 "" H 10250 3250 50  0001 C CNN
	1    10250 3250
	1    0    0    -1  
$EndComp
$Comp
L SK9822 D18
U 1 1 5AFD6EB0
P 10550 3100
F 0 "D18" H 10550 2850 60  0000 C CNN
F 1 "SK9822" H 10550 3350 60  0000 C CNN
F 2 ".pretty:SK9822" H 10550 3100 60  0001 C CNN
F 3 "" H 10550 3100 60  0001 C CNN
	1    10550 3100
	1    0    0    -1  
$EndComp
$Comp
L +5V #PWR045
U 1 1 5AFD6EB6
P 10850 3250
F 0 "#PWR045" H 10850 3100 50  0001 C CNN
F 1 "+5V" H 10850 3390 50  0000 C CNN
F 2 "" H 10850 3250 50  0001 C CNN
F 3 "" H 10850 3250 50  0001 C CNN
	1    10850 3250
	-1   0    0    1   
$EndComp
$Comp
L GND #PWR046
U 1 1 5AFD6EBC
P 11050 3250
F 0 "#PWR046" H 11050 3000 50  0001 C CNN
F 1 "GND" H 11050 3100 50  0000 C CNN
F 2 "" H 11050 3250 50  0001 C CNN
F 3 "" H 11050 3250 50  0001 C CNN
	1    11050 3250
	1    0    0    -1  
$EndComp
$Comp
L SK9822 D19
U 1 1 5AFD6EC2
P 11350 3100
F 0 "D19" H 11350 2850 60  0000 C CNN
F 1 "SK9822" H 11350 3350 60  0000 C CNN
F 2 ".pretty:SK9822" H 11350 3100 60  0001 C CNN
F 3 "" H 11350 3100 60  0001 C CNN
	1    11350 3100
	1    0    0    -1  
$EndComp
$Comp
L +5V #PWR047
U 1 1 5AFD6EC8
P 11650 3250
F 0 "#PWR047" H 11650 3100 50  0001 C CNN
F 1 "+5V" H 11650 3390 50  0000 C CNN
F 2 "" H 11650 3250 50  0001 C CNN
F 3 "" H 11650 3250 50  0001 C CNN
	1    11650 3250
	-1   0    0    1   
$EndComp
$Comp
L GND #PWR048
U 1 1 5AFD6ECE
P 11850 3250
F 0 "#PWR048" H 11850 3000 50  0001 C CNN
F 1 "GND" H 11850 3100 50  0000 C CNN
F 2 "" H 11850 3250 50  0001 C CNN
F 3 "" H 11850 3250 50  0001 C CNN
	1    11850 3250
	1    0    0    -1  
$EndComp
$Comp
L SK9822 D20
U 1 1 5AFD6ED4
P 12150 3100
F 0 "D20" H 12150 2850 60  0000 C CNN
F 1 "SK9822" H 12150 3350 60  0000 C CNN
F 2 ".pretty:SK9822" H 12150 3100 60  0001 C CNN
F 3 "" H 12150 3100 60  0001 C CNN
	1    12150 3100
	1    0    0    -1  
$EndComp
$Comp
L +5V #PWR049
U 1 1 5AFD6EDA
P 12450 3250
F 0 "#PWR049" H 12450 3100 50  0001 C CNN
F 1 "+5V" H 12450 3390 50  0000 C CNN
F 2 "" H 12450 3250 50  0001 C CNN
F 3 "" H 12450 3250 50  0001 C CNN
	1    12450 3250
	-1   0    0    1   
$EndComp
$Comp
L GND #PWR050
U 1 1 5AFD6EE0
P 12650 3250
F 0 "#PWR050" H 12650 3000 50  0001 C CNN
F 1 "GND" H 12650 3100 50  0000 C CNN
F 2 "" H 12650 3250 50  0001 C CNN
F 3 "" H 12650 3250 50  0001 C CNN
	1    12650 3250
	1    0    0    -1  
$EndComp
$Comp
L SK9822 D21
U 1 1 5AFD6EE6
P 12950 3100
F 0 "D21" H 12950 2850 60  0000 C CNN
F 1 "SK9822" H 12950 3350 60  0000 C CNN
F 2 ".pretty:SK9822" H 12950 3100 60  0001 C CNN
F 3 "" H 12950 3100 60  0001 C CNN
	1    12950 3100
	1    0    0    -1  
$EndComp
$Comp
L +5V #PWR051
U 1 1 5AFD6EEC
P 13250 3250
F 0 "#PWR051" H 13250 3100 50  0001 C CNN
F 1 "+5V" H 13250 3390 50  0000 C CNN
F 2 "" H 13250 3250 50  0001 C CNN
F 3 "" H 13250 3250 50  0001 C CNN
	1    13250 3250
	-1   0    0    1   
$EndComp
$Comp
L GND #PWR052
U 1 1 5AFD6EF2
P 13450 3250
F 0 "#PWR052" H 13450 3000 50  0001 C CNN
F 1 "GND" H 13450 3100 50  0000 C CNN
F 2 "" H 13450 3250 50  0001 C CNN
F 3 "" H 13450 3250 50  0001 C CNN
	1    13450 3250
	1    0    0    -1  
$EndComp
$Comp
L SK9822 D22
U 1 1 5AFD6EF8
P 13750 3100
F 0 "D22" H 13750 2850 60  0000 C CNN
F 1 "SK9822" H 13750 3350 60  0000 C CNN
F 2 ".pretty:SK9822" H 13750 3100 60  0001 C CNN
F 3 "" H 13750 3100 60  0001 C CNN
	1    13750 3100
	1    0    0    -1  
$EndComp
$Comp
L +5V #PWR053
U 1 1 5AFD6EFE
P 14050 3250
F 0 "#PWR053" H 14050 3100 50  0001 C CNN
F 1 "+5V" H 14050 3390 50  0000 C CNN
F 2 "" H 14050 3250 50  0001 C CNN
F 3 "" H 14050 3250 50  0001 C CNN
	1    14050 3250
	-1   0    0    1   
$EndComp
$Comp
L GND #PWR054
U 1 1 5AFD6F04
P 15050 3250
F 0 "#PWR054" H 15050 3000 50  0001 C CNN
F 1 "GND" H 15050 3100 50  0000 C CNN
F 2 "" H 15050 3250 50  0001 C CNN
F 3 "" H 15050 3250 50  0001 C CNN
	1    15050 3250
	1    0    0    -1  
$EndComp
$Comp
L SK9822 D24
U 1 1 5AFD6F0A
P 15350 3100
F 0 "D24" H 15350 2850 60  0000 C CNN
F 1 "SK9822" H 15350 3350 60  0000 C CNN
F 2 ".pretty:SK9822" H 15350 3100 60  0001 C CNN
F 3 "" H 15350 3100 60  0001 C CNN
	1    15350 3100
	1    0    0    -1  
$EndComp
$Comp
L +5V #PWR055
U 1 1 5AFD6F10
P 15650 3250
F 0 "#PWR055" H 15650 3100 50  0001 C CNN
F 1 "+5V" H 15650 3390 50  0000 C CNN
F 2 "" H 15650 3250 50  0001 C CNN
F 3 "" H 15650 3250 50  0001 C CNN
	1    15650 3250
	-1   0    0    1   
$EndComp
$Comp
L GND #PWR056
U 1 1 5AFD9BC3
P 6550 2050
F 0 "#PWR056" H 6550 1800 50  0001 C CNN
F 1 "GND" H 6550 1900 50  0000 C CNN
F 2 "" H 6550 2050 50  0001 C CNN
F 3 "" H 6550 2050 50  0001 C CNN
	1    6550 2050
	0    1    1    0   
$EndComp
$Comp
L GND #PWR057
U 1 1 5AFD9C46
P 6550 2350
F 0 "#PWR057" H 6550 2100 50  0001 C CNN
F 1 "GND" H 6550 2200 50  0000 C CNN
F 2 "" H 6550 2350 50  0001 C CNN
F 3 "" H 6550 2350 50  0001 C CNN
	1    6550 2350
	0    1    1    0   
$EndComp
$Comp
L GND #PWR058
U 1 1 5AFD9C99
P 6550 2650
F 0 "#PWR058" H 6550 2400 50  0001 C CNN
F 1 "GND" H 6550 2500 50  0000 C CNN
F 2 "" H 6550 2650 50  0001 C CNN
F 3 "" H 6550 2650 50  0001 C CNN
	1    6550 2650
	0    1    1    0   
$EndComp
$Comp
L GND #PWR059
U 1 1 5AFDAD9D
P 6550 5250
F 0 "#PWR059" H 6550 5000 50  0001 C CNN
F 1 "GND" H 6550 5100 50  0000 C CNN
F 2 "" H 6550 5250 50  0001 C CNN
F 3 "" H 6550 5250 50  0001 C CNN
	1    6550 5250
	1    0    0    -1  
$EndComp
NoConn ~ 15650 3000
NoConn ~ 15650 3100
NoConn ~ 7550 2250
NoConn ~ 7550 2550
NoConn ~ 6600 2550
NoConn ~ 6600 2250
NoConn ~ 3850 2950
NoConn ~ 4000 2950
NoConn ~ 4200 2950
NoConn ~ 4350 2950
NoConn ~ 3100 4900
NoConn ~ 3850 6850
NoConn ~ 3850 7150
NoConn ~ 4600 6850
NoConn ~ 4600 7000
NoConn ~ 3850 5900
NoConn ~ 4300 5900
NoConn ~ 4450 5900
$Comp
L SK9822 D7
U 1 1 5AFE1F49
P 14550 1600
F 0 "D7" H 14550 1350 60  0000 C CNN
F 1 "SK9822" H 14550 1850 60  0000 C CNN
F 2 ".pretty:SK9822" H 14550 1600 60  0001 C CNN
F 3 "" H 14550 1600 60  0001 C CNN
	1    14550 1600
	1    0    0    -1  
$EndComp
$Comp
L SK9822 D15
U 1 1 5AFE1FC1
P 14550 2350
F 0 "D15" H 14550 2100 60  0000 C CNN
F 1 "SK9822" H 14550 2600 60  0000 C CNN
F 2 ".pretty:SK9822" H 14550 2350 60  0001 C CNN
F 3 "" H 14550 2350 60  0001 C CNN
	1    14550 2350
	1    0    0    -1  
$EndComp
$Comp
L SK9822 D23
U 1 1 5AFE2064
P 14550 3100
F 0 "D23" H 14550 2850 60  0000 C CNN
F 1 "SK9822" H 14550 3350 60  0000 C CNN
F 2 ".pretty:SK9822" H 14550 3100 60  0001 C CNN
F 3 "" H 14550 3100 60  0001 C CNN
	1    14550 3100
	1    0    0    -1  
$EndComp
$Comp
L +5V #PWR060
U 1 1 5AFE20E8
P 14850 2500
F 0 "#PWR060" H 14850 2350 50  0001 C CNN
F 1 "+5V" H 14850 2640 50  0000 C CNN
F 2 "" H 14850 2500 50  0001 C CNN
F 3 "" H 14850 2500 50  0001 C CNN
	1    14850 2500
	-1   0    0    1   
$EndComp
$Comp
L +5V #PWR061
U 1 1 5AFE2163
P 14850 1750
F 0 "#PWR061" H 14850 1600 50  0001 C CNN
F 1 "+5V" H 14850 1890 50  0000 C CNN
F 2 "" H 14850 1750 50  0001 C CNN
F 3 "" H 14850 1750 50  0001 C CNN
	1    14850 1750
	-1   0    0    1   
$EndComp
$Comp
L +5V #PWR062
U 1 1 5AFE2218
P 14850 3250
F 0 "#PWR062" H 14850 3100 50  0001 C CNN
F 1 "+5V" H 14850 3390 50  0000 C CNN
F 2 "" H 14850 3250 50  0001 C CNN
F 3 "" H 14850 3250 50  0001 C CNN
	1    14850 3250
	-1   0    0    1   
$EndComp
$Comp
L GND #PWR063
U 1 1 5AFE2277
P 14250 3250
F 0 "#PWR063" H 14250 3000 50  0001 C CNN
F 1 "GND" H 14250 3100 50  0000 C CNN
F 2 "" H 14250 3250 50  0001 C CNN
F 3 "" H 14250 3250 50  0001 C CNN
	1    14250 3250
	1    0    0    -1  
$EndComp
$Comp
L GND #PWR064
U 1 1 5AFE22D6
P 14250 2500
F 0 "#PWR064" H 14250 2250 50  0001 C CNN
F 1 "GND" H 14250 2350 50  0000 C CNN
F 2 "" H 14250 2500 50  0001 C CNN
F 3 "" H 14250 2500 50  0001 C CNN
	1    14250 2500
	1    0    0    -1  
$EndComp
$Comp
L GND #PWR065
U 1 1 5AFE2335
P 14250 1750
F 0 "#PWR065" H 14250 1500 50  0001 C CNN
F 1 "GND" H 14250 1600 50  0000 C CNN
F 2 "" H 14250 1750 50  0001 C CNN
F 3 "" H 14250 1750 50  0001 C CNN
	1    14250 1750
	1    0    0    -1  
$EndComp
$Comp
L SW_Push SW3
U 1 1 5B00B44E
P 1500 3400
F 0 "SW3" H 1550 3500 50  0000 L CNN
F 1 "Hour -" H 1500 3340 50  0000 C CNN
F 2 "Buttons_Switches_THT:SW_PUSH_6mm_h7.3mm" H 1500 3600 50  0001 C CNN
F 3 "" H 1500 3600 50  0001 C CNN
	1    1500 3400
	1    0    0    -1  
$EndComp
$Comp
L SW_Push SW4
U 1 1 5B00B4EA
P 1500 3750
F 0 "SW4" H 1550 3850 50  0000 L CNN
F 1 "Hour +" H 1500 3690 50  0000 C CNN
F 2 "Buttons_Switches_THT:SW_PUSH_6mm_h7.3mm" H 1500 3950 50  0001 C CNN
F 3 "" H 1500 3950 50  0001 C CNN
	1    1500 3750
	1    0    0    -1  
$EndComp
$Comp
L SW_Push SW5
U 1 1 5B00B578
P 1500 4050
F 0 "SW5" H 1550 4150 50  0000 L CNN
F 1 "Minute -" H 1500 3990 50  0000 C CNN
F 2 "Buttons_Switches_THT:SW_PUSH_6mm_h7.3mm" H 1500 4250 50  0001 C CNN
F 3 "" H 1500 4250 50  0001 C CNN
	1    1500 4050
	1    0    0    -1  
$EndComp
$Comp
L SW_Push SW6
U 1 1 5B00B61F
P 1500 4350
F 0 "SW6" H 1550 4450 50  0000 L CNN
F 1 "Minute +" H 1500 4290 50  0000 C CNN
F 2 "Buttons_Switches_THT:SW_PUSH_6mm_h7.3mm" H 1500 4550 50  0001 C CNN
F 3 "" H 1500 4550 50  0001 C CNN
	1    1500 4350
	1    0    0    -1  
$EndComp
$Comp
L SW_Push SW7
U 1 1 5B00B6EF
P 1500 4650
F 0 "SW7" H 1550 4750 50  0000 L CNN
F 1 "Second -" H 1500 4590 50  0000 C CNN
F 2 "Buttons_Switches_THT:SW_PUSH_6mm_h7.3mm" H 1500 4850 50  0001 C CNN
F 3 "" H 1500 4850 50  0001 C CNN
	1    1500 4650
	1    0    0    -1  
$EndComp
$Comp
L SW_Push SW8
U 1 1 5B00B790
P 1500 4950
F 0 "SW8" H 1550 5050 50  0000 L CNN
F 1 "Second +" H 1500 4890 50  0000 C CNN
F 2 "Buttons_Switches_THT:SW_PUSH_6mm_h7.3mm" H 1500 5150 50  0001 C CNN
F 3 "" H 1500 5150 50  0001 C CNN
	1    1500 4950
	1    0    0    -1  
$EndComp
$Comp
L GND #PWR066
U 1 1 5B00D6B3
P 1100 5200
F 0 "#PWR066" H 1100 4950 50  0001 C CNN
F 1 "GND" H 1100 5050 50  0000 C CNN
F 2 "" H 1100 5200 50  0001 C CNN
F 3 "" H 1100 5200 50  0001 C CNN
	1    1100 5200
	1    0    0    -1  
$EndComp
$Comp
L GND #PWR067
U 1 1 5B01BEC0
P 8200 4550
F 0 "#PWR067" H 8200 4300 50  0001 C CNN
F 1 "GND" H 8200 4400 50  0000 C CNN
F 2 "" H 8200 4550 50  0001 C CNN
F 3 "" H 8200 4550 50  0001 C CNN
	1    8200 4550
	1    0    0    -1  
$EndComp
$Comp
L +5V #PWR068
U 1 1 5B01C2D9
P 8200 4150
F 0 "#PWR068" H 8200 4000 50  0001 C CNN
F 1 "+5V" H 8200 4290 50  0000 C CNN
F 2 "" H 8200 4150 50  0001 C CNN
F 3 "" H 8200 4150 50  0001 C CNN
	1    8200 4150
	1    0    0    -1  
$EndComp
$Comp
L C C1
U 1 1 5B01D1DA
P 7050 3150
F 0 "C1" H 7075 3250 50  0000 L CNN
F 1 "100nF" H 7075 3050 50  0000 L CNN
F 2 "Capacitors_SMD:C_1812_HandSoldering" H 7088 3000 50  0001 C CNN
F 3 "" H 7050 3150 50  0001 C CNN
	1    7050 3150
	0    1    1    0   
$EndComp
$Comp
L CP C2
U 1 1 5B01D9F5
P 8000 4350
F 0 "C2" H 8025 4450 50  0000 L CNN
F 1 "100µF" H 8025 4250 50  0000 L CNN
F 2 "Capacitors_SMD:CP_Elec_5x5.3" H 8038 4200 50  0001 C CNN
F 3 "" H 8000 4350 50  0001 C CNN
	1    8000 4350
	1    0    0    -1  
$EndComp
$Comp
L CP C3
U 1 1 5B01DC09
P 8400 4350
F 0 "C3" H 8425 4450 50  0000 L CNN
F 1 "100µF" H 8425 4250 50  0000 L CNN
F 2 "Capacitors_SMD:CP_Elec_5x5.3" H 8438 4200 50  0001 C CNN
F 3 "" H 8400 4350 50  0001 C CNN
	1    8400 4350
	1    0    0    -1  
$EndComp
$Comp
L SW_DIP_x07 SW1
U 1 1 5B03679E
P 6100 4800
F 0 "SW1" H 6100 5350 50  0000 C CNN
F 1 "SW_DIP_x07" H 6100 4450 50  0000 C CNN
F 2 "Buttons_Switches_THT:SW_DIP_x7_W7.62mm_Piano" H 6100 4800 50  0001 C CNN
F 3 "" H 6100 4800 50  0001 C CNN
	1    6100 4800
	-1   0    0    1   
$EndComp
NoConn ~ 3100 3550
Wire Wire Line
	9100 4350 9100 4400
Wire Wire Line
	9500 4350 9500 4400
Wire Wire Line
	9900 4350 9900 4400
Wire Wire Line
	6500 2800 6600 2800
Wire Wire Line
	7550 2800 7650 2800
Wire Wire Line
	6550 1750 6600 1750
Wire Wire Line
	3850 7450 3800 7450
Wire Wire Line
	3850 7300 3650 7300
Wire Wire Line
	3000 3400 3100 3400
Wire Wire Line
	5100 3400 5150 3400
Wire Wire Line
	3100 5050 2500 5050
Wire Wire Line
	2500 5050 2500 7000
Wire Wire Line
	2500 7000 3850 7000
Wire Wire Line
	3100 5200 2650 5200
Wire Wire Line
	2650 5200 2650 6400
Wire Wire Line
	5200 6400 5200 7300
Wire Wire Line
	5200 7300 4600 7300
Wire Wire Line
	3100 5350 2750 5350
Wire Wire Line
	2750 5350 2750 6500
Wire Wire Line
	5100 6500 5100 7150
Wire Wire Line
	5100 7150 4600 7150
Wire Wire Line
	5100 5350 5300 5350
Wire Wire Line
	5300 5350 5300 7450
Wire Wire Line
	5300 7450 4600 7450
Wire Wire Line
	10050 1500 10250 1500
Wire Wire Line
	10250 1600 10050 1600
Wire Wire Line
	10850 1500 11050 1500
Wire Wire Line
	11050 1600 10850 1600
Wire Wire Line
	11650 1500 11850 1500
Wire Wire Line
	11850 1600 11650 1600
Wire Wire Line
	10050 1700 10050 1750
Wire Wire Line
	10250 1700 10250 1750
Wire Wire Line
	9450 1700 9450 1750
Wire Wire Line
	10850 1700 10850 1750
Wire Wire Line
	11050 1700 11050 1750
Wire Wire Line
	11650 1700 11650 1750
Wire Wire Line
	11850 1700 11850 1750
Wire Wire Line
	12450 1700 12450 1750
Wire Wire Line
	12650 1700 12650 1750
Wire Wire Line
	13250 1700 13250 1750
Wire Wire Line
	13450 1700 13450 1750
Wire Wire Line
	14050 1700 14050 1750
Wire Wire Line
	15050 1700 15050 1750
Wire Wire Line
	15650 1700 15650 1750
Wire Wire Line
	15650 2450 15650 2500
Wire Wire Line
	15650 3200 15650 3250
Wire Wire Line
	15050 2450 15050 2500
Wire Wire Line
	14050 2450 14050 2500
Wire Wire Line
	13450 2450 13450 2500
Wire Wire Line
	13250 2450 13250 2500
Wire Wire Line
	12650 2450 12650 2500
Wire Wire Line
	12450 2450 12450 2500
Wire Wire Line
	11850 2450 11850 2500
Wire Wire Line
	11650 2450 11650 2500
Wire Wire Line
	11050 2450 11050 2500
Wire Wire Line
	10250 2450 10250 2500
Wire Wire Line
	10050 2450 10050 2500
Wire Wire Line
	9450 2450 9450 2500
Wire Wire Line
	9450 3200 9450 3250
Wire Wire Line
	10050 3200 10050 3250
Wire Wire Line
	10250 3200 10250 3250
Wire Wire Line
	10850 3200 10850 3250
Wire Wire Line
	11050 3200 11050 3250
Wire Wire Line
	11650 3200 11650 3250
Wire Wire Line
	11850 3200 11850 3250
Wire Wire Line
	12450 3200 12450 3250
Wire Wire Line
	12650 3200 12650 3250
Wire Wire Line
	13250 3200 13250 3250
Wire Wire Line
	13450 3200 13450 3250
Wire Wire Line
	14050 3200 14050 3250
Wire Wire Line
	15050 3200 15050 3250
Wire Wire Line
	12450 1500 12650 1500
Wire Wire Line
	12650 1600 12450 1600
Wire Wire Line
	13250 1500 13450 1500
Wire Wire Line
	13450 1600 13250 1600
Wire Wire Line
	14850 1500 15050 1500
Wire Wire Line
	15050 1600 14850 1600
Wire Wire Line
	14850 2250 15050 2250
Wire Wire Line
	15050 2350 14850 2350
Wire Wire Line
	13450 2250 13250 2250
Wire Wire Line
	13250 2350 13450 2350
Wire Wire Line
	12650 2250 12450 2250
Wire Wire Line
	12450 2350 12650 2350
Wire Wire Line
	11850 2250 11650 2250
Wire Wire Line
	11050 2250 10850 2250
Wire Wire Line
	10250 2250 10050 2250
Wire Wire Line
	10050 2350 10250 2350
Wire Wire Line
	10850 2350 11050 2350
Wire Wire Line
	10850 2450 10850 2500
Wire Wire Line
	11650 2350 11850 2350
Wire Wire Line
	10050 3000 10250 3000
Wire Wire Line
	10250 3100 10050 3100
Wire Wire Line
	10850 3000 11050 3000
Wire Wire Line
	11050 3100 10850 3100
Wire Wire Line
	11650 3000 11850 3000
Wire Wire Line
	11850 3100 11650 3100
Wire Wire Line
	12450 3000 12650 3000
Wire Wire Line
	12650 3100 12450 3100
Wire Wire Line
	13250 3000 13450 3000
Wire Wire Line
	13450 3100 13250 3100
Wire Wire Line
	14850 3000 15050 3000
Wire Wire Line
	15050 3100 14850 3100
Wire Wire Line
	15650 1600 15750 1600
Wire Wire Line
	15750 1600 15750 1950
Wire Wire Line
	9350 1950 9350 2350
Wire Wire Line
	9350 2350 9450 2350
Wire Wire Line
	9450 2250 9400 2250
Wire Wire Line
	9400 2250 9400 2000
Wire Wire Line
	15800 2000 15800 1500
Wire Wire Line
	15800 1500 15650 1500
Wire Wire Line
	15650 2350 15750 2350
Wire Wire Line
	15750 2350 15750 2700
Wire Wire Line
	9350 2700 9350 3100
Wire Wire Line
	9350 3100 9450 3100
Wire Wire Line
	15650 2250 15800 2250
Wire Wire Line
	15800 2250 15800 2750
Wire Wire Line
	9400 2750 9400 3000
Wire Wire Line
	9400 3000 9450 3000
Wire Wire Line
	6550 2650 6600 2650
Wire Wire Line
	6550 2350 6600 2350
Wire Wire Line
	6550 2050 6600 2050
Wire Wire Line
	3100 4600 2700 4600
Wire Wire Line
	2700 4600 2700 1950
Wire Wire Line
	2700 1950 6600 1950
Wire Wire Line
	2600 1650 6600 1650
Wire Wire Line
	2600 1650 2600 4750
Wire Wire Line
	2600 4750 3100 4750
Wire Wire Line
	7550 1650 7600 1650
Wire Wire Line
	7600 1650 7600 1500
Wire Wire Line
	7600 1500 9450 1500
Wire Wire Line
	7550 1950 7700 1950
Wire Wire Line
	7700 1950 7700 1600
Wire Wire Line
	7700 1600 9450 1600
Wire Wire Line
	14050 1500 14250 1500
Wire Wire Line
	14050 1600 14250 1600
Wire Wire Line
	14250 1700 14250 1750
Wire Wire Line
	14850 1700 14850 1750
Wire Wire Line
	14050 2250 14250 2250
Wire Wire Line
	14050 2350 14250 2350
Wire Wire Line
	14250 2450 14250 2500
Wire Wire Line
	14850 2450 14850 2500
Wire Wire Line
	14250 3000 14050 3000
Wire Wire Line
	14050 3100 14250 3100
Wire Wire Line
	14250 3200 14250 3250
Wire Wire Line
	14850 3200 14850 3250
Wire Wire Line
	15750 1950 9350 1950
Wire Wire Line
	9400 2000 15800 2000
Wire Wire Line
	15750 2700 9350 2700
Wire Wire Line
	15800 2750 9400 2750
Wire Wire Line
	1100 4950 1300 4950
Wire Wire Line
	1100 3400 1100 5200
Wire Wire Line
	1300 4650 1100 4650
Connection ~ 1100 4950
Wire Wire Line
	1300 4350 1100 4350
Connection ~ 1100 4650
Wire Wire Line
	1300 4050 1100 4050
Connection ~ 1100 4350
Wire Wire Line
	1300 3750 1100 3750
Connection ~ 1100 4050
Wire Wire Line
	1300 3400 1100 3400
Connection ~ 1100 3750
Wire Wire Line
	1700 3400 2400 3400
Wire Wire Line
	2400 3400 2400 3700
Wire Wire Line
	2400 3700 3100 3700
Wire Wire Line
	1700 3750 2350 3750
Wire Wire Line
	2350 3750 2350 3850
Wire Wire Line
	2350 3850 3100 3850
Wire Wire Line
	1700 4050 2200 4050
Wire Wire Line
	2200 4050 2200 4000
Wire Wire Line
	2200 4000 3100 4000
Wire Wire Line
	1700 4350 2300 4350
Wire Wire Line
	2300 4350 2300 4150
Wire Wire Line
	2300 4150 3100 4150
Wire Wire Line
	1700 4650 2400 4650
Wire Wire Line
	2400 4650 2400 4300
Wire Wire Line
	2400 4300 3100 4300
Wire Wire Line
	1700 4950 2500 4950
Wire Wire Line
	2500 4950 2500 4450
Wire Wire Line
	2500 4450 3100 4450
Wire Wire Line
	6550 4600 6550 5250
Wire Wire Line
	6550 5200 6400 5200
Wire Wire Line
	6550 5100 6400 5100
Connection ~ 6550 5200
Wire Wire Line
	6550 5000 6400 5000
Connection ~ 6550 5100
Wire Wire Line
	6550 4900 6400 4900
Connection ~ 6550 5000
Wire Wire Line
	6550 4800 6400 4800
Connection ~ 6550 4900
Wire Wire Line
	6550 4700 6400 4700
Connection ~ 6550 4800
Wire Wire Line
	8000 4200 8400 4200
Wire Wire Line
	8200 4200 8200 4150
Connection ~ 8200 4200
Wire Wire Line
	8000 4500 8400 4500
Wire Wire Line
	8200 4500 8200 4550
Connection ~ 8200 4500
Wire Wire Line
	6550 2800 6550 3150
Wire Wire Line
	6550 3150 6900 3150
Connection ~ 6550 2800
Wire Wire Line
	7600 2800 7600 3150
Wire Wire Line
	7600 3150 7200 3150
Connection ~ 7600 2800
Wire Wire Line
	6550 4600 6400 4600
Connection ~ 6550 4700
Wire Wire Line
	2650 6400 5200 6400
Wire Wire Line
	2750 6500 5100 6500
$Comp
L +3.3V #PWR069
U 1 1 5B09F01A
P 10400 4400
F 0 "#PWR069" H 10400 4250 50  0001 C CNN
F 1 "+3.3V" H 10400 4540 50  0000 C CNN
F 2 "" H 10400 4400 50  0001 C CNN
F 3 "" H 10400 4400 50  0001 C CNN
	1    10400 4400
	-1   0    0    1   
$EndComp
$Comp
L +5V #PWR070
U 1 1 5B09F0A0
P 10700 4400
F 0 "#PWR070" H 10700 4250 50  0001 C CNN
F 1 "+5V" H 10700 4540 50  0000 C CNN
F 2 "" H 10700 4400 50  0001 C CNN
F 3 "" H 10700 4400 50  0001 C CNN
	1    10700 4400
	-1   0    0    1   
$EndComp
$Comp
L GND #PWR071
U 1 1 5B09F126
P 10950 4400
F 0 "#PWR071" H 10950 4150 50  0001 C CNN
F 1 "GND" H 10950 4250 50  0000 C CNN
F 2 "" H 10950 4400 50  0001 C CNN
F 3 "" H 10950 4400 50  0001 C CNN
	1    10950 4400
	1    0    0    -1  
$EndComp
$Comp
L TEST TP1
U 1 1 5B09F185
P 10400 4350
F 0 "TP1" H 10400 4650 50  0000 C BNN
F 1 "+3.3V" H 10400 4600 50  0000 C CNN
F 2 "Measurement_Points:Measurement_Point_Square-SMD-Pad_Small" H 10400 4350 50  0001 C CNN
F 3 "" H 10400 4350 50  0001 C CNN
	1    10400 4350
	1    0    0    -1  
$EndComp
$Comp
L TEST TP2
U 1 1 5B09F224
P 10700 4350
F 0 "TP2" H 10700 4650 50  0000 C BNN
F 1 "+5V" H 10700 4600 50  0000 C CNN
F 2 "Measurement_Points:Measurement_Point_Square-SMD-Pad_Small" H 10700 4350 50  0001 C CNN
F 3 "" H 10700 4350 50  0001 C CNN
	1    10700 4350
	1    0    0    -1  
$EndComp
$Comp
L TEST TP3
U 1 1 5B09F35D
P 10950 4350
F 0 "TP3" H 10950 4650 50  0000 C BNN
F 1 "GND" H 10950 4600 50  0000 C CNN
F 2 "Measurement_Points:Measurement_Point_Square-SMD-Pad_Small" H 10950 4350 50  0001 C CNN
F 3 "" H 10950 4350 50  0001 C CNN
	1    10950 4350
	1    0    0    -1  
$EndComp
Wire Wire Line
	10950 4350 10950 4400
Wire Wire Line
	10700 4350 10700 4400
Wire Wire Line
	10400 4350 10400 4400
$Comp
L R R1
U 1 1 5B0A0D73
P 5950 3550
F 0 "R1" V 6030 3550 50  0000 C CNN
F 1 "330" V 5950 3550 50  0000 C CNN
F 2 "Resistors_SMD:R_1206_HandSoldering" V 5880 3550 50  0001 C CNN
F 3 "" H 5950 3550 50  0001 C CNN
	1    5950 3550
	0    1    1    0   
$EndComp
$Comp
L R R2
U 1 1 5B0A0F1B
P 5950 3850
F 0 "R2" V 6030 3850 50  0000 C CNN
F 1 "330" V 5950 3850 50  0000 C CNN
F 2 "Resistors_SMD:R_1206_HandSoldering" V 5880 3850 50  0001 C CNN
F 3 "" H 5950 3850 50  0001 C CNN
	1    5950 3850
	0    1    1    0   
$EndComp
$Comp
L R R3
U 1 1 5B0A0FBD
P 5950 4150
F 0 "R3" V 6030 4150 50  0000 C CNN
F 1 "330" V 5950 4150 50  0000 C CNN
F 2 "Resistors_SMD:R_1206_HandSoldering" V 5880 4150 50  0001 C CNN
F 3 "" H 5950 4150 50  0001 C CNN
	1    5950 4150
	0    1    1    0   
$EndComp
$Comp
L LED D25
U 1 1 5B0A1031
P 6300 3550
F 0 "D25" H 6300 3650 50  0000 C CNN
F 1 "Manual" H 6300 3450 50  0000 C CNN
F 2 "LEDs:LED_1206_HandSoldering" H 6300 3550 50  0001 C CNN
F 3 "" H 6300 3550 50  0001 C CNN
	1    6300 3550
	-1   0    0    1   
$EndComp
$Comp
L LED D26
U 1 1 5B0A10E0
P 6300 3850
F 0 "D26" H 6300 3950 50  0000 C CNN
F 1 "Internet" H 6300 3750 50  0000 C CNN
F 2 "LEDs:LED_1206_HandSoldering" H 6300 3850 50  0001 C CNN
F 3 "" H 6300 3850 50  0001 C CNN
	1    6300 3850
	-1   0    0    1   
$EndComp
$Comp
L LED D27
U 1 1 5B0A1187
P 6300 4150
F 0 "D27" H 6300 4250 50  0000 C CNN
F 1 "Connected" H 6300 4050 50  0000 C CNN
F 2 "LEDs:LED_1206_HandSoldering" H 6300 4150 50  0001 C CNN
F 3 "" H 6300 4150 50  0001 C CNN
	1    6300 4150
	-1   0    0    1   
$EndComp
Wire Wire Line
	5800 5200 5100 5200
Wire Wire Line
	5100 5050 5150 5050
Wire Wire Line
	5150 5050 5150 5100
Wire Wire Line
	5150 5100 5800 5100
Wire Wire Line
	5100 4900 5200 4900
Wire Wire Line
	5200 4900 5200 5000
Wire Wire Line
	5200 5000 5800 5000
Wire Wire Line
	5100 4750 5250 4750
Wire Wire Line
	5250 4750 5250 4900
Wire Wire Line
	5250 4900 5800 4900
Wire Wire Line
	5100 4600 5300 4600
Wire Wire Line
	5300 4600 5300 4800
Wire Wire Line
	5300 4800 5800 4800
Wire Wire Line
	5100 4450 5350 4450
Wire Wire Line
	5350 4450 5350 4700
Wire Wire Line
	5350 4700 5800 4700
Wire Wire Line
	5100 4300 5400 4300
Wire Wire Line
	5400 4300 5400 4600
Wire Wire Line
	5400 4600 5800 4600
Wire Wire Line
	5100 3850 5650 3850
Wire Wire Line
	5650 3850 5650 3550
Wire Wire Line
	5650 3550 5800 3550
Wire Wire Line
	5800 4150 5100 4150
Wire Wire Line
	5100 4000 5750 4000
Wire Wire Line
	5750 4000 5750 3850
Wire Wire Line
	5750 3850 5800 3850
Wire Wire Line
	6100 3550 6150 3550
Wire Wire Line
	6100 3850 6150 3850
Wire Wire Line
	6100 4150 6150 4150
Wire Wire Line
	6450 3550 6500 3550
Wire Wire Line
	6500 3550 6500 4150
Wire Wire Line
	6500 4150 6450 4150
Wire Wire Line
	6450 3850 6550 3850
Connection ~ 6500 3850
$Comp
L GND #PWR072
U 1 1 5B0A722D
P 6550 3850
F 0 "#PWR072" H 6550 3600 50  0001 C CNN
F 1 "GND" H 6550 3700 50  0000 C CNN
F 2 "" H 6550 3850 50  0001 C CNN
F 3 "" H 6550 3850 50  0001 C CNN
	1    6550 3850
	0    -1   -1   0   
$EndComp
NoConn ~ 4000 5900
NoConn ~ 4150 5900
$Comp
L +3.3V #PWR073
U 1 1 5B21DE72
P 5400 3700
F 0 "#PWR073" H 5400 3550 50  0001 C CNN
F 1 "+3.3V" H 5400 3840 50  0000 C CNN
F 2 "" H 5400 3700 50  0001 C CNN
F 3 "" H 5400 3700 50  0001 C CNN
	1    5400 3700
	0    1    1    0   
$EndComp
Wire Wire Line
	5100 3700 5400 3700
$Comp
L GND #PWR074
U 1 1 5B21E4ED
P 5250 3550
F 0 "#PWR074" H 5250 3300 50  0001 C CNN
F 1 "GND" H 5250 3400 50  0000 C CNN
F 2 "" H 5250 3550 50  0001 C CNN
F 3 "" H 5250 3550 50  0001 C CNN
	1    5250 3550
	0    -1   -1   0   
$EndComp
Wire Wire Line
	5250 3550 5100 3550
$EndSCHEMATC
