(module 3mmMount (layer F.Cu) (tedit 5B03763E)
  (fp_text reference REF** (at 0 3.81) (layer F.SilkS) hide
    (effects (font (size 1 1) (thickness 0.15)))
  )
  (fp_text value "Mounting Hole" (at 0 -3.81) (layer F.Fab) hide
    (effects (font (size 1 1) (thickness 0.15)))
  )
  (fp_circle (center 0 0) (end 2.54 0) (layer F.SilkS) (width 0.15))
  (pad "" np_thru_hole circle (at 0 0) (size 3.1 3.1) (drill 3) (layers *.Cu *.Mask))
)
